{
    "page": 1,
    "total_results": 2227,
    "total_pages": 112,
    "results": [
        {
            "vote_count": 8229,
            "id": 177572,
            "video": false,
            "vote_average": 7.8,
            "title": "Big Hero 6",
            "popularity": 29.554,
            "poster_path": "/9gLu47Zw5ertuFTZaxXOvNfy78T.jpg",
            "original_language": "en",
            "original_title": "Big Hero 6",
            "genre_ids": [
                12,
                10751,
                16,
                28,
                35
            ],
            "backdrop_path": "/2BXd0t9JdVqCp9sKf6kzMkr7QjB.jpg",
            "adult": false,
            "overview": "The special bond that develops between plus-sized inflatable robot Baymax, and prodigy Hiro Hamada, who team up with a group of friends to form a band of high-tech heroes.",
            "release_date": "2014-10-24"
        },
        {
            "vote_count": 2618,
            "id": 181533,
            "video": false,
            "vote_average": 6.1,
            "title": "Night at the Museum: Secret of the Tomb",
            "popularity": 23.767,
            "poster_path": "/tWwASv4CU1Au1IukacdSUewDCV3.jpg",
            "original_language": "en",
            "original_title": "Night at the Museum: Secret of the Tomb",
            "genre_ids": [
                12,
                35,
                14,
                10751
            ],
            "backdrop_path": "/73hI1zgRALUDrB46JDPBLFqHcqv.jpg",
            "adult": false,
            "overview": "When the magic powers of The Tablet of Ahkmenrah begin to die out, Larry Daley (Ben Stiller) spans the globe, uniting favorite and new characters while embarking on an epic quest to save the magic before it is gone forever.",
            "release_date": "2014-12-17"
        },
        {
            "vote_count": 6065,
            "id": 194662,
            "video": false,
            "vote_average": 7.4,
            "title": "Birdman",
            "popularity": 22.811,
            "poster_path": "/rSZs93P0LLxqlVEbI001UKoeCQC.jpg",
            "original_language": "en",
            "original_title": "Birdman",
            "genre_ids": [
                18,
                35
            ],
            "backdrop_path": "/pLMRBAKD9Nc9zjWRpqLXasNcf4F.jpg",
            "adult": false,
            "overview": "A fading actor best known for his portrayal of a popular superhero attempts to mount a comeback by appearing in a Broadway play. As opening night approaches, his attempts to become more altruistic, rebuild his career, and reconnect with friends and family prove more difficult than expected.",
            "release_date": "2014-08-27"
        },
        {
            "vote_count": 3443,
            "id": 98566,
            "video": false,
            "vote_average": 5.8,
            "title": "Teenage Mutant Ninja Turtles",
            "popularity": 22.106,
            "poster_path": "/oDL2ryJ0sV2bmjgshVgJb3qzvwp.jpg",
            "original_language": "en",
            "original_title": "Teenage Mutant Ninja Turtles",
            "genre_ids": [
                878,
                28,
                12,
                14,
                35
            ],
            "backdrop_path": "/OqCXGt5nl1cHPeotxCDvXLLe6p.jpg",
            "adult": false,
            "overview": "The city needs heroes. Darkness has settled over New York City as Shredder and his evil Foot Clan have an iron grip on everything from the police to the politicians. The future is grim until four unlikely outcast brothers rise from the sewers and discover their destiny as Teenage Mutant Ninja Turtles. The Turtles must work with fearless reporter April and her wise-cracking cameraman Vern Fenwick to save the city and unravel Shredder's diabolical plan.",
            "release_date": "2014-08-07"
        },
        {
            "vote_count": 2218,
            "id": 224141,
            "video": false,
            "vote_average": 5.7,
            "title": "Into the Woods",
            "popularity": 20.521,
            "poster_path": "/5h91odPFNlBuJbRBj5N4MEBfXDE.jpg",
            "original_language": "en",
            "original_title": "Into the Woods",
            "genre_ids": [
                14,
                35
            ],
            "backdrop_path": "/lzJzB0QfkjpGCm9qUC4XpEIB6pm.jpg",
            "adult": false,
            "overview": "In a woods filled with magic and fairy tale characters, a baker and his wife set out to end the curse put on them by their neighbor, a spiteful witch.",
            "release_date": "2014-12-25"
        },
        {
            "vote_count": 2179,
            "id": 225886,
            "video": false,
            "vote_average": 5.3,
            "title": "Sex Tape",
            "popularity": 20.142,
            "poster_path": "/2BMmIPGu5ZbTrwXwomdSUuTB2Ul.jpg",
            "original_language": "en",
            "original_title": "Sex Tape",
            "genre_ids": [
                35
            ],
            "backdrop_path": "/82j1VNKMnDx7ZA7Pm06vm0XMKas.jpg",
            "adult": false,
            "overview": "When Jay and Annie first got together, their romantic connection was intense – but ten years and two kids later, the flame of their love needs a spark.  To kick things up a notch, they decide – why not? – to make a video of themselves trying out every position in The Joy of Sex in one marathon three-hour session.  It seems like a great idea – until they discover that their most private video is no longer private.  With their reputations on the line, they know they’re just one click away from being laid bare to the world... but as their race to reclaim their video leads to a night they'll never forget, they'll find that their video will expose even more than they bargained for.",
            "release_date": "2014-07-17"
        },
        {
            "vote_count": 1762,
            "id": 270946,
            "video": false,
            "vote_average": 6.4,
            "title": "Penguins of Madagascar",
            "popularity": 19.861,
            "poster_path": "/pRer59eyY4rjkLPeKXKo7fPxCHH.jpg",
            "original_language": "en",
            "original_title": "Penguins of Madagascar",
            "genre_ids": [
                10751,
                16,
                12,
                35
            ],
            "backdrop_path": "/fBYnaVOcc2Ghfkv473z0xdBRQ0m.jpg",
            "adult": false,
            "overview": "Skipper, Kowalski, Rico and Private join forces with undercover organization The North Wind to stop the villainous Dr. Octavius Brine from destroying the world as we know it.",
            "release_date": "2014-11-22"
        },
        {
            "vote_count": 4166,
            "id": 82702,
            "video": false,
            "vote_average": 7.6,
            "title": "How to Train Your Dragon 2",
            "popularity": 17.126,
            "poster_path": "/lRjOR4uclMQijUav4OjeZprlehu.jpg",
            "original_language": "en",
            "original_title": "How to Train Your Dragon 2",
            "genre_ids": [
                14,
                28,
                12,
                16,
                35,
                10751
            ],
            "backdrop_path": "/kxMnGToxk5EtDhTBuz3kkZPzg1b.jpg",
            "adult": false,
            "overview": "The thrilling second chapter of the epic How To Train Your Dragon trilogy brings back the fantastical world of Hiccup and Toothless five years later. While Astrid, Snotlout and the rest of the gang are challenging each other to dragon races (the island's new favorite contact sport), the now inseparable pair journey through the skies, charting unmapped territories and exploring new worlds. When one of their adventures leads to the discovery of a secret ice cave that is home to hundreds of new wild dragons and the mysterious Dragon Rider, the two friends find themselves at the center of a battle to protect the peace.",
            "release_date": "2014-06-12"
        },
        {
            "vote_count": 622,
            "id": 196867,
            "video": false,
            "vote_average": 6,
            "title": "Annie",
            "popularity": 15.867,
            "poster_path": "/hkvKhuUUgjJ4jrXKkvqoQ5JnQx5.jpg",
            "original_language": "en",
            "original_title": "Annie",
            "genre_ids": [
                35,
                18,
                10751
            ],
            "backdrop_path": "/hqNff5zochp9hzo299wC4Uoy8M9.jpg",
            "adult": false,
            "overview": "Ever since her parents left her as a baby, little Annie has led a hard-knock life with her calculating foster mother, Miss Hannigan. However, all that changes when hard-nosed billionaire and mayoral candidate Will Stacks takes her in on the recommendation of his advisers. Stacks believes that he's Annie's guardian angel, but the plucky youngster's confidence and sunny outlook may mean that Annie will save Will instead.",
            "release_date": "2014-12-19"
        },
        {
            "vote_count": 6284,
            "id": 120467,
            "video": false,
            "vote_average": 8,
            "title": "The Grand Budapest Hotel",
            "popularity": 15.566,
            "poster_path": "/nX5XotM9yprCKarRH4fzOq1VM1J.jpg",
            "original_language": "en",
            "original_title": "The Grand Budapest Hotel",
            "genre_ids": [
                35,
                18
            ],
            "backdrop_path": "/5FPUoQtnNC0C0YZ7sUeTLq6eZqa.jpg",
            "adult": false,
            "overview": "The Grand Budapest Hotel tells of a legendary concierge at a famous European hotel between the wars and his friendship with a young employee who becomes his trusted protégé. The story involves the theft and recovery of a priceless Renaissance painting, the battle for an enormous family fortune and the slow and then sudden upheavals that transformed Europe during the first half of the 20th century.",
            "release_date": "2014-02-26"
        },
        {
            "vote_count": 2043,
            "id": 227159,
            "video": false,
            "vote_average": 6.1,
            "title": "Horrible Bosses 2",
            "popularity": 14.528,
            "poster_path": "/zRkLCOx7o9tjPYb9s7u6mpw8VOs.jpg",
            "original_language": "en",
            "original_title": "Horrible Bosses 2",
            "genre_ids": [
                35
            ],
            "backdrop_path": "/7OluTl9LoaMDZ2MVdrFVuU2os09.jpg",
            "adult": false,
            "overview": "Dale, Kurt and Nick decide to start their own business but things don't go as planned because of a slick investor, prompting the trio to pull off a harebrained and misguided kidnapping scheme.",
            "release_date": "2014-11-26"
        },
        {
            "vote_count": 1436,
            "id": 100042,
            "video": false,
            "vote_average": 5.4,
            "title": "Dumb and Dumber To",
            "popularity": 14.155,
            "poster_path": "/Ekw3ijq9L6RiKvv5m2tPOEklHF.jpg",
            "original_language": "en",
            "original_title": "Dumb and Dumber To",
            "genre_ids": [
                35
            ],
            "backdrop_path": "/pMNSiNT55XrxWPmoI5ytJyinRa8.jpg",
            "adult": false,
            "overview": "20 years after the dimwits set out on their first adventure, they head out in search of one of their long lost children in the hope of gaining a new kidney.",
            "release_date": "2014-11-12"
        },
        {
            "vote_count": 1448,
            "id": 193893,
            "video": false,
            "vote_average": 6.3,
            "title": "Let's Be Cops",
            "popularity": 12.689,
            "poster_path": "/ayYibwWAA9NxJPaD9GSybPShtvL.jpg",
            "original_language": "en",
            "original_title": "Let's Be Cops",
            "genre_ids": [
                35
            ],
            "backdrop_path": "/43GrPpAeBUOvOCZ8L1A3MLuDnkc.jpg",
            "adult": false,
            "overview": "It's the ultimate buddy cop movie except for one thing: they're not cops.  When two struggling pals dress as police officers for a costume party, they become neighborhood sensations.  But when these newly-minted “heroes” get tangled in a real life web of mobsters and dirty detectives, they must put their fake badges on the line.",
            "release_date": "2014-08-13"
        },
        {
            "vote_count": 2925,
            "id": 228967,
            "video": false,
            "vote_average": 6.1,
            "title": "The Interview",
            "popularity": 12.409,
            "poster_path": "/2uWb0aSm5cFmRCHP95OdA6hvTEs.jpg",
            "original_language": "en",
            "original_title": "The Interview",
            "genre_ids": [
                28,
                35
            ],
            "backdrop_path": "/p5n7VTC6qmFIuBFjACWURYCAlKP.jpg",
            "adult": false,
            "overview": "Dave Skylark and his producer Aaron Rapoport run the celebrity tabloid show \"Skylark Tonight\". When they land an interview with a surprise fan, North Korean dictator Kim Jong-un, they are recruited by the CIA to turn their trip to Pyongyang into an assassination mission.",
            "release_date": "2014-12-25"
        },
        {
            "vote_count": 112,
            "id": 263281,
            "video": false,
            "vote_average": 6.6,
            "title": "Our Summer in Provence",
            "popularity": 12.382,
            "poster_path": "/s0xvudPBROrbkLWGbfwVg3o5AdM.jpg",
            "original_language": "fr",
            "original_title": "Avis de mistral",
            "genre_ids": [
                35,
                18
            ],
            "backdrop_path": "/r5VPFfUnh9Z8yGLzmuqvVnOHoRs.jpg",
            "adult": false,
            "overview": "Lea, Adrian, and their little brother Theo, born deaf, go on holiday in Provence with their grandfather, Paul \"Oliveron\" they never met because of a family quarrel. It is not the holidays they dreamed, especially their father announced yesterday that he was leaving the house. In less than 24 hours, it is the clash of generations between teenagers and a grandfather they believe psycho. A wrong. Because the turbulent past will resurface and Paul Seventies will land deep in the Alpilles. During this summer tormented both generations will be processed one by the other.",
            "release_date": "2014-04-02"
        },
        {
            "vote_count": 920,
            "id": 239563,
            "video": false,
            "vote_average": 7.1,
            "title": "St. Vincent",
            "popularity": 12.264,
            "poster_path": "/w0hzr4eQBk1X4m63fb7sOSt9Bnn.jpg",
            "original_language": "en",
            "original_title": "St. Vincent",
            "genre_ids": [
                35
            ],
            "backdrop_path": "/sycS64dwK8eRxMeKALPE29z0HXv.jpg",
            "adult": false,
            "overview": "A young boy whose parents just divorced finds an unlikely friend and mentor in the misanthropic, bawdy, hedonistic, war veteran who lives next door.",
            "release_date": "2014-10-09"
        },
        {
            "vote_count": 130,
            "id": 272435,
            "video": false,
            "vote_average": 6.2,
            "title": "Gemma Bovery",
            "popularity": 12.102,
            "poster_path": "/mahZKBraamrJEDll8tTm48PqHcR.jpg",
            "original_language": "fr",
            "original_title": "Gemma Bovery",
            "genre_ids": [
                10749,
                18,
                35
            ],
            "backdrop_path": "/eQt3nqxaowe4y7ro5s5xO1HBohl.jpg",
            "adult": false,
            "overview": "Martin, an ex-Parisian well-heeled hipster passionate about Gustave Flaubert who settled into a Norman village as a baker, sees an English couple moving into a small farm nearby. Not only are the names of the new arrivals Gemma and Charles Bovery, but their behavior also seems to be inspired by Flaubert's heroes.",
            "release_date": "2014-09-10"
        },
        {
            "vote_count": 779,
            "id": 203739,
            "video": false,
            "vote_average": 5.8,
            "title": "Vampire Academy",
            "popularity": 11.85,
            "poster_path": "/cJZpKgiFfjDZ6L5aOJvbmDhsGqY.jpg",
            "original_language": "en",
            "original_title": "Vampire Academy",
            "genre_ids": [
                35,
                28,
                14
            ],
            "backdrop_path": "/lZjdesSUjlbIUQ0q0ANNqxH0GEV.jpg",
            "adult": false,
            "overview": "Rose, a rebellious half-vampire/half-human guardian-in-training and her best friend, Lissa -- a mortal, royal vampire Princess - have been on the run when they are captured and returned to St. Vladamirs Academy, the very place where they believe their lives may be in most jeopardy. Rose will sacrifice everything to protect Lissa from those who intend to exploit her from within the Academy walls and the Strigoi (immortal, evil vampires) who hunt her kind from outside its sanctuary.",
            "release_date": "2014-02-07"
        },
        {
            "vote_count": 1038,
            "id": 168530,
            "video": false,
            "vote_average": 6.2,
            "title": "Ride Along",
            "popularity": 11.789,
            "poster_path": "/fLXPcxZ1fJjxqUg94FFb8wwM9YN.jpg",
            "original_language": "en",
            "original_title": "Ride Along",
            "genre_ids": [
                28,
                35
            ],
            "backdrop_path": "/cRaD42r5Hte1D9Z24L6v0dtlYGj.jpg",
            "adult": false,
            "overview": "For the past two years, high-school security guard Ben has been trying to show decorated APD detective James that he's more than just a video-game junkie who's unworthy of James' sister, Angela. When Ben finally gets accepted into the academy, he thinks he's earned the seasoned policeman's respect and asks for his blessing to marry Angela. Knowing that a ride along will demonstrate if Ben has what it takes to take care of his sister, James invites him on a shift designed to scare the hell out of the trainee. But when the wild night leads them to the most notorious criminal in the city, James will find that his new partner's rapid-fire mouth is just as dangerous as the bullets speeding at it.",
            "release_date": "2014-01-07"
        },
        {
            "vote_count": 1382,
            "id": 116149,
            "video": false,
            "vote_average": 7,
            "title": "Paddington",
            "popularity": 11.6,
            "poster_path": "/Sw7g22Wt4IILyD8LepkjNe5ql9.jpg",
            "original_language": "en",
            "original_title": "Paddington",
            "genre_ids": [
                35,
                12,
                16,
                10751
            ],
            "backdrop_path": "/zwMEMIo1j5TjP9oUG89aWCKDjYt.jpg",
            "adult": false,
            "overview": "A young Peruvian bear travels to London in search of a new home. Finding himself lost and alone at Paddington Station, he meets the kindly Brown family.",
            "release_date": "2014-11-28"
        }
    ]
}