{
    "page": 1,
    "total_results": 608,
    "total_pages": 31,
    "results": [
        {
            "vote_count": 8229,
            "id": 177572,
            "video": false,
            "vote_average": 7.8,
            "title": "Big Hero 6",
            "popularity": 29.554,
            "poster_path": "/9gLu47Zw5ertuFTZaxXOvNfy78T.jpg",
            "original_language": "en",
            "original_title": "Big Hero 6",
            "genre_ids": [
                12,
                10751,
                16,
                28,
                35
            ],
            "backdrop_path": "/2BXd0t9JdVqCp9sKf6kzMkr7QjB.jpg",
            "adult": false,
            "overview": "The special bond that develops between plus-sized inflatable robot Baymax, and prodigy Hiro Hamada, who team up with a group of friends to form a band of high-tech heroes.",
            "release_date": "2014-10-24"
        },
        {
            "vote_count": 1762,
            "id": 270946,
            "video": false,
            "vote_average": 6.4,
            "title": "Penguins of Madagascar",
            "popularity": 19.861,
            "poster_path": "/pRer59eyY4rjkLPeKXKo7fPxCHH.jpg",
            "original_language": "en",
            "original_title": "Penguins of Madagascar",
            "genre_ids": [
                10751,
                16,
                12,
                35
            ],
            "backdrop_path": "/fBYnaVOcc2Ghfkv473z0xdBRQ0m.jpg",
            "adult": false,
            "overview": "Skipper, Kowalski, Rico and Private join forces with undercover organization The North Wind to stop the villainous Dr. Octavius Brine from destroying the world as we know it.",
            "release_date": "2014-11-22"
        },
        {
            "vote_count": 4166,
            "id": 82702,
            "video": false,
            "vote_average": 7.6,
            "title": "How to Train Your Dragon 2",
            "popularity": 17.126,
            "poster_path": "/lRjOR4uclMQijUav4OjeZprlehu.jpg",
            "original_language": "en",
            "original_title": "How to Train Your Dragon 2",
            "genre_ids": [
                14,
                28,
                12,
                16,
                35,
                10751
            ],
            "backdrop_path": "/kxMnGToxk5EtDhTBuz3kkZPzg1b.jpg",
            "adult": false,
            "overview": "The thrilling second chapter of the epic How To Train Your Dragon trilogy brings back the fantastical world of Hiccup and Toothless five years later. While Astrid, Snotlout and the rest of the gang are challenging each other to dragon races (the island's new favorite contact sport), the now inseparable pair journey through the skies, charting unmapped territories and exploring new worlds. When one of their adventures leads to the discovery of a secret ice cave that is home to hundreds of new wild dragons and the mysterious Dragon Rider, the two friends find themselves at the center of a battle to protect the peace.",
            "release_date": "2014-06-12"
        },
        {
            "vote_count": 1382,
            "id": 116149,
            "video": false,
            "vote_average": 7,
            "title": "Paddington",
            "popularity": 11.6,
            "poster_path": "/Sw7g22Wt4IILyD8LepkjNe5ql9.jpg",
            "original_language": "en",
            "original_title": "Paddington",
            "genre_ids": [
                35,
                12,
                16,
                10751
            ],
            "backdrop_path": "/zwMEMIo1j5TjP9oUG89aWCKDjYt.jpg",
            "adult": false,
            "overview": "A young Peruvian bear travels to London in search of a new home. Finding himself lost and alone at Paddington Station, he meets the kindly Brown family.",
            "release_date": "2014-11-28"
        },
        {
            "vote_count": 1333,
            "id": 172385,
            "video": false,
            "vote_average": 6.3,
            "title": "Rio 2",
            "popularity": 10.744,
            "poster_path": "/jZcF7xZVvrX2A4qNOqeHpmtbdBT.jpg",
            "original_language": "en",
            "original_title": "Rio 2",
            "genre_ids": [
                12,
                35,
                10751,
                10402,
                16
            ],
            "backdrop_path": "/bRQPOVpvBmvep9WYnGcKguxjlg2.jpg",
            "adult": false,
            "overview": "It's a jungle out there for Blu, Jewel and their three kids after they're hurtled from Rio de Janeiro to the wilds of the Amazon. As Blu tries to fit in, he goes beak-to-beak with the vengeful Nigel, and meets the most fearsome adversary of all: his father-in-law.",
            "release_date": "2014-03-19"
        },
        {
            "vote_count": 980,
            "id": 228326,
            "video": false,
            "vote_average": 7.3,
            "title": "The Book of Life",
            "popularity": 10.605,
            "poster_path": "/5B4lKHSQAtT1FSEfbjJkQ8ylxAY.jpg",
            "original_language": "en",
            "original_title": "The Book of Life",
            "genre_ids": [
                10749,
                16,
                12,
                35,
                10751,
                14
            ],
            "backdrop_path": "/lVshZpxU5EB8zXJrnXxblaDps6m.jpg",
            "adult": false,
            "overview": "The journey of Manolo, a young man who is torn between fulfilling the expectations of his family and following his heart. Before choosing which path to follow, he embarks on an incredible adventure that spans three fantastical worlds where he must face his greatest fears.",
            "release_date": "2014-10-01"
        },
        {
            "vote_count": 1078,
            "id": 82703,
            "video": false,
            "vote_average": 6.7,
            "title": "Mr. Peabody & Sherman",
            "popularity": 10.535,
            "poster_path": "/wGRWVfhMdGIThSDld2965oUkJ5E.jpg",
            "original_language": "en",
            "original_title": "Mr. Peabody & Sherman",
            "genre_ids": [
                16,
                12,
                10751
            ],
            "backdrop_path": "/hpIUiHIyNKWsid3Tz4adtYsUqo1.jpg",
            "adult": false,
            "overview": "A young boy and his dog, who happens to have a genius-level IQ, spring into action when their time-travel machine is stolen and moments in history begin to be changed.",
            "release_date": "2014-02-07"
        },
        {
            "vote_count": 372,
            "id": 297270,
            "video": false,
            "vote_average": 6.8,
            "title": "Tinker Bell and the Legend of the NeverBeast",
            "popularity": 10.516,
            "poster_path": "/lKNYRlJ9jJAPU7yNYU0qTSQ4AYa.jpg",
            "original_language": "en",
            "original_title": "Tinker Bell and the Legend of the NeverBeast",
            "genre_ids": [
                12,
                16,
                10751
            ],
            "backdrop_path": "/sH4J1XiOx4PJ2cZ6toEDOcFeGOl.jpg",
            "adult": false,
            "overview": "An ancient myth of a massive creature sparks the curiosity of Tinker Bell and her good friend Fawn, an animal fairy who’s not afraid to break the rules to help an animal in need. But this creature is not welcome in Pixie Hollow — and the scout fairies are determined to capture the mysterious beast, who they fear will destroy their home. Fawn must convince her fairy friends to risk everything to rescue the NeverBeast.",
            "release_date": "2014-12-12"
        },
        {
            "vote_count": 3899,
            "id": 137106,
            "video": false,
            "vote_average": 7.5,
            "title": "The Lego Movie",
            "popularity": 10.401,
            "poster_path": "/lMHbadNmznKs5vgBAkHxKGHulOa.jpg",
            "original_language": "en",
            "original_title": "The Lego Movie",
            "genre_ids": [
                12,
                16,
                35,
                10751,
                14
            ],
            "backdrop_path": "/ef7HMjpN36vrgwrkTmtVasbU3Xo.jpg",
            "adult": false,
            "overview": "An ordinary Lego mini-figure, mistakenly thought to be the extraordinary MasterBuilder, is recruited to join a quest to stop an evil Lego tyrant from gluing the universe together.",
            "release_date": "2014-02-06"
        },
        {
            "vote_count": 526,
            "id": 170522,
            "video": false,
            "vote_average": 6.7,
            "title": "Asterix: The Mansions of the Gods",
            "popularity": 10.236,
            "poster_path": "/uGJmA6bh4gtH2nLMn4wlKazpGlj.jpg",
            "original_language": "fr",
            "original_title": "Astérix: Le domaine des dieux",
            "genre_ids": [
                16,
                35,
                12
            ],
            "backdrop_path": "/hci1WXOymW0nI5RvGYoK7rtaHcP.jpg",
            "adult": false,
            "overview": "In order to wipe out the Gaulish village by any means necessary, Caesar plans to absorb the villagers into Roman culture by having an estate built next to the village to start a new Roman colony.",
            "release_date": "2014-11-26"
        },
        {
            "vote_count": 425,
            "id": 227783,
            "video": false,
            "vote_average": 5.6,
            "title": "The Nut Job",
            "popularity": 9.759,
            "poster_path": "/rXdSfDu08cs0fU9S6l3AK1bJqy8.jpg",
            "original_language": "en",
            "original_title": "The Nut Job",
            "genre_ids": [
                16,
                35,
                10751,
                12
            ],
            "backdrop_path": "/TCtQLLO9PRqCcPCFgpx77a3Pct.jpg",
            "adult": false,
            "overview": "Surly, a curmudgeon, independent squirrel is banished from his park and forced to survive in the city. Lucky for him, he stumbles on the one thing that may be able to save his life, and the rest of park community, as they gear up for winter - Maury's Nut Store.",
            "release_date": "2014-01-17"
        },
        {
            "vote_count": 382,
            "id": 175112,
            "video": false,
            "vote_average": 6.6,
            "title": "Tinker Bell and the Pirate Fairy",
            "popularity": 9.606,
            "poster_path": "/7pTcejxx8f0Xlw3WEmdg1lNnHrP.jpg",
            "original_language": "en",
            "original_title": "Tinker Bell and the Pirate Fairy",
            "genre_ids": [
                16,
                10751
            ],
            "backdrop_path": "/1DfcGAQ4EVIZFnveo1IzHFtgFTS.jpg",
            "adult": false,
            "overview": "Zarina, a smart and ambitious dust-keeper fairy who’s captivated by Blue Pixie Dust and its endless possibilities, flees Pixie Hollow and joins forces with the scheming pirates of Skull Rock, who make her captain of their ship. Tinker Bell and her friends must embark on an epic adventure to find Zarina, and together they go sword-to-sword with the band of pirates led by a cabin boy named James, who’ll soon be known as Captain Hook himself.",
            "release_date": "2014-02-13"
        },
        {
            "vote_count": 318,
            "id": 217993,
            "video": false,
            "vote_average": 7.1,
            "title": "Justice League: War",
            "popularity": 9.112,
            "poster_path": "/11X9WnPuSCnKavfTe0AJ935MDl4.jpg",
            "original_language": "en",
            "original_title": "Justice League: War",
            "genre_ids": [
                16
            ],
            "backdrop_path": "/4LQmfAzJn5w7hGk4sSHLt0jgszK.jpg",
            "adult": false,
            "overview": "The world is under attack by an alien armada led by the powerful Apokoliptian, Darkseid. A group of superheroes consisting of Superman, Batman, Wonder Woman, The Flash, Green Lantern, Cyborg, and Shazam must set aside their differences and gather together to defend Earth.",
            "release_date": "2014-02-02"
        },
        {
            "vote_count": 350,
            "id": 218836,
            "video": false,
            "vote_average": 5.9,
            "title": "Planes: Fire & Rescue",
            "popularity": 8.869,
            "poster_path": "/b5Xn7UQf7s6ZPsDTVT0NeLqiiHY.jpg",
            "original_language": "en",
            "original_title": "Planes: Fire & Rescue",
            "genre_ids": [
                16,
                35,
                12,
                10751
            ],
            "backdrop_path": "/3MET6hEfk8n8i0KFRq9BHnJq7ju.jpg",
            "adult": false,
            "overview": "When world-famous air racer Dusty learns that his engine is damaged and he may never race again, he must shift gears and is launched into the world of aerial firefighting. Dusty joins forces with veteran fire and rescue helicopter Blade Ranger and his team, a bunch of all-terrain vehicles known as The Smokejumpers. Together, the fearless team battles a massive wildfire, and Dusty learns what it takes to become a true hero.",
            "release_date": "2014-07-17"
        },
        {
            "vote_count": 204,
            "id": 317442,
            "video": false,
            "vote_average": 7.3,
            "title": "The Last: Naruto the Movie",
            "popularity": 8.788,
            "poster_path": "/bAQ8O5Uw6FedtlCbJTutenzPVKd.jpg",
            "original_language": "ja",
            "original_title": "The Last: Naruto the Movie",
            "genre_ids": [
                28,
                10749,
                16
            ],
            "backdrop_path": "/9KqhygG22XaAkDoZavDpc5vNNry.jpg",
            "adult": false,
            "overview": "Two years after the events of the Fourth Great Ninja War, the moon that Hagoromo Otsutsuki created long ago to seal away the Gedo Statue begins to descend towards the world, threatening to become a meteor that would destroy everything on impact. Amidst this crisis, a direct descendant of Kaguya Otsutsuki named Toneri Otsutsuki attempts to kidnap Hinata Hyuga but ends up abducting her younger sister Hanabi. Naruto and his allies now mount a rescue mission before finding themselves embroiled in a final battle to decide the fate of everything.",
            "release_date": "2014-12-06"
        },
        {
            "vote_count": 502,
            "id": 242828,
            "video": false,
            "vote_average": 7.9,
            "title": "When Marnie Was There",
            "popularity": 8.614,
            "poster_path": "/wiEzIu4bw15RhB3NT58mCbPgv3R.jpg",
            "original_language": "ja",
            "original_title": "思い出のマーニー",
            "genre_ids": [
                16,
                18
            ],
            "backdrop_path": "/dKaeI8qM0zXKRjk5gtUOQrapoeX.jpg",
            "adult": false,
            "overview": "Upon being sent to live with relatives in the countryside due to an illness, an emotionally distant adolescent girl becomes obsessed with an abandoned mansion and infatuated with a girl who lives there - a girl who may or may not be real.",
            "release_date": "2014-07-19"
        },
        {
            "vote_count": 547,
            "id": 110416,
            "video": false,
            "vote_average": 8.1,
            "title": "Song of the Sea",
            "popularity": 8.195,
            "poster_path": "/uvNv23Arf2ZYtimiStSB2c1DAEX.jpg",
            "original_language": "en",
            "original_title": "Song of the Sea",
            "genre_ids": [
                10751,
                16,
                14
            ],
            "backdrop_path": "/pmzR5Q8W0wbxpBV3lp548hBESiE.jpg",
            "adult": false,
            "overview": "The story of the last Seal Child’s journey home. After their mother’s disappearance, Ben and Saoirse are sent to live with Granny in the city. When they resolve to return to their home by the sea, their journey becomes a race against time as they are drawn into a world Ben knows only from his mother’s folktales. But this is no bedtime story; these fairy folk have been in our world far too long. It soon becomes clear to Ben that Saoirse is the key to their survival.",
            "release_date": "2014-09-06"
        },
        {
            "vote_count": 832,
            "id": 170687,
            "video": false,
            "vote_average": 6.6,
            "title": "The Boxtrolls",
            "popularity": 8.136,
            "poster_path": "/82BWSf1NfCm18ZJtAOIym1QRd24.jpg",
            "original_language": "en",
            "original_title": "The Boxtrolls",
            "genre_ids": [
                16,
                35,
                10751,
                14
            ],
            "backdrop_path": "/AkvG7Ujjlughd34hOIhQSeC6RBZ.jpg",
            "adult": false,
            "overview": "An orphaned boy raised by underground creatures called Boxtrolls comes up from the sewers and out of his box to save his family and the town from the evil exterminator, Archibald Snatcher.",
            "release_date": "2014-09-10"
        },
        {
            "vote_count": 502,
            "id": 293299,
            "video": false,
            "vote_average": 8,
            "title": "Feast",
            "popularity": 7.789,
            "poster_path": "/qJ9ouIj4wN24asvKTUSAcJnSfrT.jpg",
            "original_language": "en",
            "original_title": "Feast",
            "genre_ids": [
                16,
                35,
                18,
                10751
            ],
            "backdrop_path": "/fCVPTB6VxfIy2xKGDLt9Ek5OJhm.jpg",
            "adult": false,
            "overview": "This Oscar-winning animated short film tells the story of one man's love life as seen through the eyes of his best friend and dog, Winston, and revealed bite by bite through the meals they share.",
            "release_date": "2014-11-07"
        },
        {
            "vote_count": 205,
            "id": 287590,
            "video": false,
            "vote_average": 5.1,
            "title": "Saint Seiya: Legend of Sanctuary",
            "popularity": 7.394,
            "poster_path": "/54eqz6OFHORtSH30L0gedCOIfBj.jpg",
            "original_language": "ja",
            "original_title": "聖闘士星矢 LEGEND of SANCTUARY",
            "genre_ids": [
                28,
                16,
                14
            ],
            "backdrop_path": "/kwlM5NAdNSkePzPzDIgijhWAHCI.jpg",
            "adult": false,
            "overview": "Warriors called \"Saints\" are the champions of hope who have always appeared since the Age of Myth whenever evil threatens the world. In this present day story, many years since the long fought \"Holy War\" we find Saori Kido, a girl troubled by her mysterious powers. She is saved by a boy, Seiya \"Bronze Saint\" from a sudden attack by an assassin, through the accident Saori realizes her destiny and mission and decides to go to \"Sanctuary\" with Seiya and his company of Bronze Saints. In Sanctuary they confront \"Pope\" and wage a desperate battle against the greatest Saints, the \"Gold Saints\".",
            "release_date": "2014-06-21"
        }
    ]
}