{
    "page": 1,
    "total_results": 680,
    "total_pages": 34,
    "results": [
        {
            "vote_count": 8270,
            "id": 198663,
            "video": false,
            "vote_average": 7,
            "title": "The Maze Runner",
            "popularity": 65.273,
            "poster_path": "/coss7RgL0NH6g4fC2s5atvf3dFO.jpg",
            "original_language": "en",
            "original_title": "The Maze Runner",
            "genre_ids": [
                28,
                9648,
                878,
                53
            ],
            "backdrop_path": "/lkOZcsXcOLZYeJ2YxJd3vSldvU4.jpg",
            "adult": false,
            "overview": "Set in a post-apocalyptic world, young Thomas is deposited in a community of boys after his memory is erased, soon learning they're all trapped in a maze that will require him to join forces with fellow “runners” for a shot at escape.",
            "release_date": "2014-09-10"
        },
        {
            "vote_count": 13661,
            "id": 118340,
            "video": false,
            "vote_average": 7.9,
            "title": "Guardians of the Galaxy",
            "popularity": 51.045,
            "poster_path": "/y31QB9kn3XSudA15tV7UWQ9XLuW.jpg",
            "original_language": "en",
            "original_title": "Guardians of the Galaxy",
            "genre_ids": [
                28,
                878,
                12
            ],
            "backdrop_path": "/bHarw8xrmQeqf3t8HpuMY7zoK4x.jpg",
            "adult": false,
            "overview": "Light years from Earth, 26 years after being abducted, Peter Quill finds himself the prime target of a manhunt after discovering an orb wanted by Ronan the Accuser.",
            "release_date": "2014-07-30"
        },
        {
            "vote_count": 7711,
            "id": 245891,
            "video": false,
            "vote_average": 7,
            "title": "John Wick",
            "popularity": 32.396,
            "poster_path": "/5vHssUeVe25bMrof1HyaPyWgaP.jpg",
            "original_language": "en",
            "original_title": "John Wick",
            "genre_ids": [
                28,
                53
            ],
            "backdrop_path": "/umC04Cozevu8nn3JTDJ1pc7PVTn.jpg",
            "adult": false,
            "overview": "Ex-hitman John Wick comes out of retirement to track down the gangsters that took everything from him.",
            "release_date": "2014-10-22"
        },
        {
            "vote_count": 8012,
            "id": 127585,
            "video": false,
            "vote_average": 7.5,
            "title": "X-Men: Days of Future Past",
            "popularity": 31.884,
            "poster_path": "/qKkFk9HELmABpcPoc1HHZGIxQ5a.jpg",
            "original_language": "en",
            "original_title": "X-Men: Days of Future Past",
            "genre_ids": [
                28,
                12,
                14,
                878
            ],
            "backdrop_path": "/5LBcSLHAtEIIgvNkA2dPmYH5wR7.jpg",
            "adult": false,
            "overview": "The ultimate X-Men ensemble fights a war for the survival of the species across two time periods as they join forces with their younger selves in an epic battle that must change the past – to save our future.",
            "release_date": "2014-05-15"
        },
        {
            "vote_count": 5885,
            "id": 119450,
            "video": false,
            "vote_average": 7.3,
            "title": "Dawn of the Planet of the Apes",
            "popularity": 30.434,
            "poster_path": "/2EUAUIu5lHFlkj5FRryohlH6CRO.jpg",
            "original_language": "en",
            "original_title": "Dawn of the Planet of the Apes",
            "genre_ids": [
                878,
                28,
                18,
                53
            ],
            "backdrop_path": "/t7VSsAbIQS6kpO4ikuCNSiugsSy.jpg",
            "adult": false,
            "overview": "A group of scientists in San Francisco struggle to stay alive in the aftermath of a plague that is wiping out humanity, while Caesar tries to maintain dominance over his community of intelligent apes.",
            "release_date": "2014-06-26"
        },
        {
            "vote_count": 8229,
            "id": 177572,
            "video": false,
            "vote_average": 7.8,
            "title": "Big Hero 6",
            "popularity": 29.554,
            "poster_path": "/9gLu47Zw5ertuFTZaxXOvNfy78T.jpg",
            "original_language": "en",
            "original_title": "Big Hero 6",
            "genre_ids": [
                12,
                10751,
                16,
                28,
                35
            ],
            "backdrop_path": "/2BXd0t9JdVqCp9sKf6kzMkr7QjB.jpg",
            "adult": false,
            "overview": "The special bond that develops between plus-sized inflatable robot Baymax, and prodigy Hiro Hamada, who team up with a group of friends to form a band of high-tech heroes.",
            "release_date": "2014-10-24"
        },
        {
            "vote_count": 6540,
            "id": 122917,
            "video": false,
            "vote_average": 7.2,
            "title": "The Hobbit: The Battle of the Five Armies",
            "popularity": 28.573,
            "poster_path": "/9zRzFJuaj0CHIOhAkcCcFTvyu2X.jpg",
            "original_language": "en",
            "original_title": "The Hobbit: The Battle of the Five Armies",
            "genre_ids": [
                28,
                12,
                14
            ],
            "backdrop_path": "/uA8Qe2d9bKEdCFakjjdldy3P2pU.jpg",
            "adult": false,
            "overview": "Immediately after the events of The Desolation of Smaug, Bilbo and the dwarves try to defend Erebor's mountain of treasure from others who claim it: the men of the ruined Laketown and the elves of Mirkwood. Meanwhile an army of Orcs led by Azog the Defiler is marching on Erebor, fueled by the rise of the dark lord Sauron. Dwarves, elves and men must unite, and the hope for Middle-Earth falls into Bilbo's hands.",
            "release_date": "2014-12-10"
        },
        {
            "vote_count": 5282,
            "id": 228150,
            "video": false,
            "vote_average": 7.4,
            "title": "Fury",
            "popularity": 24.518,
            "poster_path": "/pfte7wdMobMF4CVHuOxyu6oqeeA.jpg",
            "original_language": "en",
            "original_title": "Fury",
            "genre_ids": [
                10752,
                18,
                28
            ],
            "backdrop_path": "/pKawqrtCBMmxarft7o1LbEynys7.jpg",
            "adult": false,
            "overview": "Last months of World War II in April 1945. As the Allies make their final push in the European Theater, a battle-hardened U.S. Army sergeant in the 2nd Armored Division named Wardaddy commands a Sherman tank called \"Fury\" and its five-man crew on a deadly mission behind enemy lines. Outnumbered and outgunned, Wardaddy and his men face overwhelming odds in their heroic attempts to strike at the heart of Nazi Germany.",
            "release_date": "2014-10-15"
        },
        {
            "vote_count": 6269,
            "id": 102651,
            "video": false,
            "vote_average": 7,
            "title": "Maleficent",
            "popularity": 23.006,
            "poster_path": "/4FYu1AAu14tuBU0lns0hbKiHUcH.jpg",
            "original_language": "en",
            "original_title": "Maleficent",
            "genre_ids": [
                14,
                12,
                28,
                10751,
                10749
            ],
            "backdrop_path": "/tO4xw0P4mdia3EcS6pHkox3cOIy.jpg",
            "adult": false,
            "overview": "The untold story of Disney's most iconic villain from the 1959 classic 'Sleeping Beauty'. A beautiful, pure-hearted young woman, Maleficent has an idyllic life growing up in a peaceable forest kingdom, until one day when an invading army threatens the harmony of the land.  Maleficent rises to be the land's fiercest protector, but she ultimately suffers a ruthless betrayal – an act that begins to turn her heart into stone. Bent on revenge, Maleficent faces an epic battle with the invading King's successor and, as a result, places a curse upon his newborn infant Aurora. As the child grows, Maleficent realizes that Aurora holds the key to peace in the kingdom - and to Maleficent's true happiness as well.",
            "release_date": "2014-05-28"
        },
        {
            "vote_count": 3443,
            "id": 98566,
            "video": false,
            "vote_average": 5.8,
            "title": "Teenage Mutant Ninja Turtles",
            "popularity": 22.106,
            "poster_path": "/oDL2ryJ0sV2bmjgshVgJb3qzvwp.jpg",
            "original_language": "en",
            "original_title": "Teenage Mutant Ninja Turtles",
            "genre_ids": [
                878,
                28,
                12,
                14,
                35
            ],
            "backdrop_path": "/OqCXGt5nl1cHPeotxCDvXLLe6p.jpg",
            "adult": false,
            "overview": "The city needs heroes. Darkness has settled over New York City as Shredder and his evil Foot Clan have an iron grip on everything from the police to the politicians. The future is grim until four unlikely outcast brothers rise from the sewers and discover their destiny as Teenage Mutant Ninja Turtles. The Turtles must work with fearless reporter April and her wise-cracking cameraman Vern Fenwick to save the city and unravel Shredder's diabolical plan.",
            "release_date": "2014-08-07"
        },
        {
            "vote_count": 3724,
            "id": 156022,
            "video": false,
            "vote_average": 7.1,
            "title": "The Equalizer",
            "popularity": 21.712,
            "poster_path": "/2eQfjqlvPAxd9aLDs8DvsKLnfed.jpg",
            "original_language": "en",
            "original_title": "The Equalizer",
            "genre_ids": [
                53,
                28,
                80
            ],
            "backdrop_path": "/ms9oACSGJRjofNPA6HVtcgE5DiU.jpg",
            "adult": false,
            "overview": "In The Equalizer, Denzel Washington plays McCall, a man who believes he has put his mysterious past behind him and dedicated himself to beginning a new, quiet life. But when McCall meets Teri (Chloë Grace Moretz), a young girl under the control of ultra-violent Russian gangsters, he can’t stand idly by – he has to help her. Armed with hidden skills that allow him to serve vengeance against anyone who would brutalize the helpless, McCall comes out of his self-imposed retirement and finds his desire for justice reawakened. If someone has a problem, if the odds are stacked against them, if they have nowhere else to turn, McCall will help. He is The Equalizer.",
            "release_date": "2014-09-24"
        },
        {
            "vote_count": 3917,
            "id": 91314,
            "video": false,
            "vote_average": 5.8,
            "title": "Transformers: Age of Extinction",
            "popularity": 21.168,
            "poster_path": "/ykIZB9dYBIKV13k5igGFncT5th6.jpg",
            "original_language": "en",
            "original_title": "Transformers: Age of Extinction",
            "genre_ids": [
                878,
                28,
                12
            ],
            "backdrop_path": "/cHy7nSitAVgvZ7qfCK4JO47t3oZ.jpg",
            "adult": false,
            "overview": "As humanity picks up the pieces, following the conclusion of \"Transformers: Dark of the Moon,\" Autobots and Decepticons have all but vanished from the face of the planet. However, a group of powerful, ingenious businessman and scientists attempt to learn from past Transformer incursions and push the boundaries of technology beyond what they can control - all while an ancient, powerful Transformer menace sets Earth in his cross-hairs.",
            "release_date": "2014-06-25"
        },
        {
            "vote_count": 8031,
            "id": 100402,
            "video": false,
            "vote_average": 7.6,
            "title": "Captain America: The Winter Soldier",
            "popularity": 20.751,
            "poster_path": "/5TQ6YDmymBpnF005OyoB7ohZps9.jpg",
            "original_language": "en",
            "original_title": "Captain America: The Winter Soldier",
            "genre_ids": [
                28,
                12,
                878
            ],
            "backdrop_path": "/4qfXT9BtxeFuamR4F49m2mpKQI1.jpg",
            "adult": false,
            "overview": "After the cataclysmic events in New York with The Avengers, Steve Rogers, aka Captain America is living quietly in Washington, D.C. and trying to adjust to the modern world. But when a S.H.I.E.L.D. colleague comes under attack, Steve becomes embroiled in a web of intrigue that threatens to put the world at risk. Joining forces with the Black Widow, Captain America struggles to expose the ever-widening conspiracy while fighting off professional assassins sent to silence him at every turn. When the full scope of the villainous plot is revealed, Captain America and the Black Widow enlist the help of a new ally, the Falcon. However, they soon find themselves up against an unexpected and formidable enemy—the Winter Soldier.",
            "release_date": "2014-03-20"
        },
        {
            "vote_count": 8086,
            "id": 240832,
            "video": false,
            "vote_average": 6.3,
            "title": "Lucy",
            "popularity": 20.125,
            "poster_path": "/rwn876MeqienhOVSSjtUPnwxn0Z.jpg",
            "original_language": "en",
            "original_title": "Lucy",
            "genre_ids": [
                28,
                878
            ],
            "backdrop_path": "/eCgIoGvfNXrbSiQGqQHccuHjQHm.jpg",
            "adult": false,
            "overview": "A woman, accidentally caught in a dark deal, turns the tables on her captors and transforms into a merciless warrior evolved beyond human logic.",
            "release_date": "2014-07-25"
        },
        {
            "vote_count": 3080,
            "id": 49017,
            "video": false,
            "vote_average": 6.2,
            "title": "Dracula Untold",
            "popularity": 19.822,
            "poster_path": "/4oy4e0DP6LRwRszfx8NY8EYBj8V.jpg",
            "original_language": "en",
            "original_title": "Dracula Untold",
            "genre_ids": [
                27,
                28,
                18,
                14,
                10752
            ],
            "backdrop_path": "/6UPlIYKxZqUR6Xbpgu1JKG0J7UC.jpg",
            "adult": false,
            "overview": "Vlad Tepes is a great hero, but when he learns the Sultan is preparing for battle and needs to form an army of 1,000 boys, including Vlad's son, he vows to find a way to protect his family. Vlad turns to dark forces in order to get the power to destroy his enemies and agrees to go from hero to monster as he's turned into the mythological vampire Dracula.",
            "release_date": "2014-10-01"
        },
        {
            "vote_count": 6411,
            "id": 157350,
            "video": false,
            "vote_average": 6.9,
            "title": "Divergent",
            "popularity": 19.39,
            "poster_path": "/yTtx2ciqk4XdN1oKhMMDy3f5ue3.jpg",
            "original_language": "en",
            "original_title": "Divergent",
            "genre_ids": [
                28,
                12,
                878
            ],
            "backdrop_path": "/g6WT9zxATzTy9NVu2xwbxDAxvjd.jpg",
            "adult": false,
            "overview": "In a world divided into factions based on personality types, Tris learns that she's been classified as Divergent and won't fit in. When she discovers a plot to destroy Divergents, Tris and the mysterious Four must find out what makes Divergents dangerous before it's too late.",
            "release_date": "2014-03-14"
        },
        {
            "vote_count": 2394,
            "id": 147441,
            "video": false,
            "vote_average": 5.7,
            "title": "Exodus: Gods and Kings",
            "popularity": 18.004,
            "poster_path": "/ycDcPCpWM7hSdIR6tFkOzQPkve2.jpg",
            "original_language": "en",
            "original_title": "Exodus: Gods and Kings",
            "genre_ids": [
                12,
                18,
                28
            ],
            "backdrop_path": "/hOOgtrByGgWfqGTTn5VL7jkLYXJ.jpg",
            "adult": false,
            "overview": "The defiant leader Moses rises up against the Egyptian Pharaoh Ramses, setting 400,000 slaves on a monumental journey of escape from Egypt and its terrifying cycle of deadly plagues.",
            "release_date": "2014-12-03"
        },
        {
            "vote_count": 2815,
            "id": 260346,
            "video": false,
            "vote_average": 6.1,
            "title": "Taken 3",
            "popularity": 17.4,
            "poster_path": "/ikDwR3i2bczqnRf1urJTy77YTFf.jpg",
            "original_language": "en",
            "original_title": "Taken 3",
            "genre_ids": [
                53,
                28
            ],
            "backdrop_path": "/sFTXZBtYAPHCwvX6OYNr916M6SZ.jpg",
            "adult": false,
            "overview": "Ex-government operative Bryan Mills finds his life is shattered when he's falsely accused of a murder that hits close to home. As he's pursued by a savvy police inspector, Mills employs his particular set of skills to track the real killer and exact his unique brand of justice.",
            "release_date": "2014-12-16"
        },
        {
            "vote_count": 72,
            "id": 321068,
            "video": false,
            "vote_average": 5.9,
            "title": "Mythica: A Quest for Heroes",
            "popularity": 17.308,
            "poster_path": "/3Wz15vPjgN3avkMMD6nkVjS4Kf7.jpg",
            "original_language": "en",
            "original_title": "Mythica: A Quest for Heroes",
            "genre_ids": [
                28,
                12,
                14
            ],
            "backdrop_path": "/ytZxOUICU5c3kClPwrhEDENEun1.jpg",
            "adult": false,
            "overview": "Stuck in a life of indentured servitude, Marek dreams of becoming a wizard. When she meets a beautiful priestess, Teela, in need of help, Marek escapes her master and puts together a team of adventurers - including Thane the warrior and Dagen the half-elf thief – and embarks on an epic quest to free Teela’s sister from orcs and ogres. After raiding the orc camp, the group learns that Teela’s sister has been taken into the mountains by a giant ogre. Escaping hellhounds and dragons on their dangerous journey, the team find themselves hopelessly outmatched by the man-eating ogre, and must unite all their talents to free the prisoners and escape with their own lives.",
            "release_date": "2014-12-08"
        },
        {
            "vote_count": 4166,
            "id": 82702,
            "video": false,
            "vote_average": 7.6,
            "title": "How to Train Your Dragon 2",
            "popularity": 17.126,
            "poster_path": "/lRjOR4uclMQijUav4OjeZprlehu.jpg",
            "original_language": "en",
            "original_title": "How to Train Your Dragon 2",
            "genre_ids": [
                14,
                28,
                12,
                16,
                35,
                10751
            ],
            "backdrop_path": "/kxMnGToxk5EtDhTBuz3kkZPzg1b.jpg",
            "adult": false,
            "overview": "The thrilling second chapter of the epic How To Train Your Dragon trilogy brings back the fantastical world of Hiccup and Toothless five years later. While Astrid, Snotlout and the rest of the gang are challenging each other to dragon races (the island's new favorite contact sport), the now inseparable pair journey through the skies, charting unmapped territories and exploring new worlds. When one of their adventures leads to the discovery of a secret ice cave that is home to hundreds of new wild dragons and the mysterious Dragon Rider, the two friends find themselves at the center of a battle to protect the peace.",
            "release_date": "2014-06-12"
        }
    ]
}