{  
   "page":1,
   "total_results":20066,
   "total_pages":1004,
   "results":[  
      {  
         "original_name":"The Big Bang Theory",
         "genre_ids":[  
            35
         ],
         "name":"The Big Bang Theory",
         "popularity":265.669,
         "origin_country":[  
            "US"
         ],
         "vote_count":3039,
         "first_air_date":"2007-09-24",
         "backdrop_path":"\/nGsNruW3W27V6r4gkyc3iiEGsKR.jpg",
         "original_language":"en",
         "id":1418,
         "vote_average":6.8,
         "overview":"The Big Bang Theory is centered on five characters living in Pasadena, California: roommates Leonard Hofstadter and Sheldon Cooper; Penny, a waitress and aspiring actress who lives across the hall; and Leonard and Sheldon's equally geeky and socially awkward friends and co-workers, mechanical engineer Howard Wolowitz and astrophysicist Raj Koothrappali. The geekiness and intellect of the four guys is contrasted for comic effect with Penny's social skills and common sense.",
         "poster_path":"\/ooBGRQBdbGzBxAVfExiO8r7kloA.jpg"
      },
      {  
         "original_name":"12 Monkeys",
         "genre_ids":[  
            18,
            878
         ],
         "name":"12 Monkeys",
         "popularity":98.99,
         "origin_country":[  
            "US"
         ],
         "vote_count":269,
         "first_air_date":"2015-01-16",
         "backdrop_path":"\/hCl5HObevnBr0M2FwGUxp93GciK.jpg",
         "original_language":"en",
         "id":60948,
         "vote_average":6.9,
         "overview":"The provocative story of Cole, a time traveler from a decimated future in a high-stakes race against the clock. Utilizing a dangerous and untested method of time travel, he journeys from 2043 to the present day on a mission to locate and eradicate the source of a deadly plague that will all but annihilate the human race.",
         "poster_path":"\/taoncu2TKk88hqNauPLKmIRfwrO.jpg"
      },
      {  
         "original_name":"The Walking Dead",
         "genre_ids":[  
            18,
            10759,
            10765
         ],
         "name":"The Walking Dead",
         "popularity":93.375,
         "origin_country":[  
            "US"
         ],
         "vote_count":3470,
         "first_air_date":"2010-10-31",
         "backdrop_path":"\/xVzvD5BPAU4HpleFSo8QOdHkndo.jpg",
         "original_language":"en",
         "id":1402,
         "vote_average":7.3,
         "overview":"Sheriff's deputy Rick Grimes awakens from a coma to find a post-apocalyptic world dominated by flesh-eating zombies. He sets out to find his family and encounters many other survivors along the way.",
         "poster_path":"\/yn7psGTZsHumHOkLUmYpyrIcA2G.jpg"
      },
      {  
         "original_name":"Elementary",
         "genre_ids":[  
            80,
            18,
            9648
         ],
         "name":"Elementary",
         "popularity":91.698,
         "origin_country":[  
            "US"
         ],
         "vote_count":484,
         "first_air_date":"2012-09-27",
         "backdrop_path":"\/7sJrNKwzyJWnFPFpDL9wnZ859LZ.jpg",
         "original_language":"en",
         "id":1415,
         "vote_average":7,
         "overview":"A modern-day drama about a crime-solving duo that cracks the NYPD's most impossible cases. Following his fall from grace in London and a stint in rehab, eccentric Sherlock escapes to Manhattan where his wealthy father forces him to live with his worst nightmare - a sober companion, Dr. Watson.",
         "poster_path":"\/q9dObe29W4bDpgzUfOOH3ZnzDbR.jpg"
      },
      {  
         "original_name":"Mindhunter",
         "genre_ids":[  
            80,
            18
         ],
         "name":"Mindhunter",
         "popularity":79.486,
         "origin_country":[  
            "US"
         ],
         "vote_count":395,
         "first_air_date":"2017-10-13",
         "backdrop_path":"\/a906PH7CDmSOdS7kmnAgdWk5mhv.jpg",
         "original_language":"en",
         "id":67744,
         "vote_average":7.4,
         "overview":"An agent in the FBI's Elite Serial Crime Unit develops profiling techniques as he pursues notorious serial killers and rapists.",
         "poster_path":"\/r7RIwuceOaDP4KTmU1EFeDniRq4.jpg"
      },
      {  
         "original_name":"The Handmaid's Tale",
         "genre_ids":[  
            18,
            10765
         ],
         "name":"The Handmaid's Tale",
         "popularity":78.007,
         "origin_country":[  
            "US"
         ],
         "vote_count":265,
         "first_air_date":"2017-04-26",
         "backdrop_path":"\/1lgss4ZTOsFgY0p9xRf4hl85BNR.jpg",
         "original_language":"en",
         "id":69478,
         "vote_average":7.8,
         "overview":"Set in a dystopian future, a woman is forced to live as a concubine under a fundamentalist theocratic dictatorship. A TV adaptation of Margaret Atwood's novel.",
         "poster_path":"\/tELIZw0ugIxqjBKrhWbROlgCbz4.jpg"
      },
      {  
         "original_name":"Marvel's Agents of S.H.I.E.L.D.",
         "genre_ids":[  
            18,
            10759,
            10765
         ],
         "name":"Marvel's Agents of S.H.I.E.L.D.",
         "popularity":76.4,
         "origin_country":[  
            "US"
         ],
         "vote_count":1103,
         "first_air_date":"2013-09-24",
         "backdrop_path":"\/qtr5i6hOm6oVzTYl3jOQAYP3oc7.jpg",
         "original_language":"en",
         "id":1403,
         "vote_average":6.7,
         "overview":"Agent Phil Coulson of S.H.I.E.L.D. (Strategic Homeland Intervention, Enforcement and Logistics Division) puts together a team of agents to investigate the new, the strange and the unknown around the globe, protecting the ordinary from the extraordinary.",
         "poster_path":"\/xjm6uVktPuKXNILwjLXwVG5d5BU.jpg"
      },
      {  
         "original_name":"The 100",
         "genre_ids":[  
            18,
            10765
         ],
         "name":"The 100",
         "popularity":73.167,
         "origin_country":[  
            "US"
         ],
         "vote_count":1165,
         "first_air_date":"2014-03-19",
         "backdrop_path":"\/qYTIuJJ7fIehicAt3bl0vW70Sq6.jpg",
         "original_language":"en",
         "id":48866,
         "vote_average":6.4,
         "overview":"Based on the books by Kass Morgan, this show takes place 100 years in the future, when the Earth has been abandoned due to radioactivity. The last surviving humans live on an ark orbiting the planet — but the ark won't last forever. So the repressive regime picks 100 expendable juvenile delinquents to send down to Earth to see if the planet is still habitable.",
         "poster_path":"\/fjJAcCmeSRQIpFttRX6NGdjnTIh.jpg"
      },
      {  
         "original_name":"The Missing",
         "genre_ids":[  
            18,
            9648
         ],
         "name":"The Missing",
         "popularity":67.335,
         "origin_country":[  
            "GB"
         ],
         "vote_count":109,
         "first_air_date":"2014-10-28",
         "backdrop_path":"\/2hF2RnjVwHvxfhH2lkB9H9FdQHb.jpg",
         "original_language":"en",
         "id":61555,
         "vote_average":7.1,
         "overview":"A gripping anthological relationship thriller series exploring the emotional fallout of a child's abduction not only on the family but on the wider community, told over two time frames.",
         "poster_path":"\/w1FDeOGoFS1qsSRHlj2Jzp2P0e1.jpg"
      },
      {  
         "original_name":"The Expanse",
         "genre_ids":[  
            18,
            9648,
            10765
         ],
         "name":"The Expanse",
         "popularity":65.103,
         "origin_country":[  
            "US"
         ],
         "vote_count":576,
         "first_air_date":"2015-12-14",
         "backdrop_path":"\/beIjmWr3OBOtcWK4tKMObOIDJ1C.jpg",
         "original_language":"en",
         "id":63639,
         "vote_average":7.5,
         "overview":"A thriller set two hundred years in the future following the case of a missing young woman who brings a hardened detective and a rogue ship's captain together in a race across the solar system to expose the greatest conspiracy in human history.",
         "poster_path":"\/prJFWxJ0x8tBPTliMjj51wgYnSK.jpg"
      },
      {  
         "original_name":"Game of Thrones",
         "genre_ids":[  
            18,
            10759,
            10765
         ],
         "name":"Game of Thrones",
         "popularity":64.979,
         "origin_country":[  
            "US"
         ],
         "vote_count":4631,
         "first_air_date":"2011-04-17",
         "backdrop_path":"\/gX8SYlnL9ZznfZwEH4KJUePBFUM.jpg",
         "original_language":"en",
         "id":1399,
         "vote_average":8.2,
         "overview":"Seven noble families fight for control of the mythical land of Westeros. Friction between the houses leads to full-scale war. All while a very ancient evil awakens in the farthest north. Amidst the war, a neglected military order of misfits, the Night's Watch, is all that stands between the realms of men and icy horrors beyond.",
         "poster_path":"\/gwPSoYUHAKmdyVywgLpKKA4BjRr.jpg"
      },
      {  
         "original_name":"Taarak Mehta Ka Ooltah Chashmah",
         "genre_ids":[  
            35,
            18,
            10751
         ],
         "name":"Taarak Mehta Ka Ooltah Chashmah",
         "popularity":64.461,
         "origin_country":[  
            "IO"
         ],
         "vote_count":4,
         "first_air_date":"2008-07-28",
         "backdrop_path":"\/iE0U2XjzQO8rQ8JK2PgZt4wSR4a.jpg",
         "original_language":"hi",
         "id":8630,
         "vote_average":8,
         "overview":"Taarak Mehta Ka Ooltah Chashmah is an Indian sitcom produced by Neela Telefilms which airs Monday through Friday. The show first aired on July 28, 2008. The show and its title are based on the column Duniya Na Oondha Chashmah written by columnist and journalist Taarak Mehta for the Gujarati weekly magazine Chitralekha.",
         "poster_path":"\/6MwPCuI48s8sbzUOVT6Vkp6lAza.jpg"
      },
      {  
         "original_name":"The Simpsons",
         "genre_ids":[  
            16,
            35
         ],
         "name":"The Simpsons",
         "popularity":58.915,
         "origin_country":[  
            "US"
         ],
         "vote_count":1527,
         "first_air_date":"1989-12-17",
         "backdrop_path":"\/f5uNbUC76oowt5mt5J9QlqrIYQ6.jpg",
         "original_language":"en",
         "id":456,
         "vote_average":7.1,
         "overview":"Set in Springfield, the average American town, the show focuses on the antics and everyday adventures of the Simpson family; Homer, Marge, Bart, Lisa and Maggie, as well as a virtual cast of thousands. Since the beginning, the series has been a pop culture icon, attracting hundreds of celebrities to guest star. The show has also made name for itself in its fearless satirical take on politics, media and American life in general.",
         "poster_path":"\/yTZQkSsxUFJZJe67IenRM0AEklc.jpg"
      },
      {  
         "original_name":"Supernatural",
         "genre_ids":[  
            18,
            9648,
            10765
         ],
         "name":"Supernatural",
         "popularity":58.336,
         "origin_country":[  
            "US"
         ],
         "vote_count":1471,
         "first_air_date":"2005-09-13",
         "backdrop_path":"\/koMUCyGWNtH5LXYbGqjsUwvgtsT.jpg",
         "original_language":"en",
         "id":1622,
         "vote_average":7.2,
         "overview":"When they were boys, Sam and Dean Winchester lost their mother to a mysterious and demonic supernatural force. Subsequently, their father raised them to be soldiers. He taught them about the paranormal evil that lives in the dark corners and on the back roads of America ... and he taught them how to kill it. Now, the Winchester brothers crisscross the country in their '67 Chevy Impala, battling every kind of supernatural threat they encounter along the way. ",
         "poster_path":"\/pui1V389cQft0BVFu9pbsYLEW1Q.jpg"
      },
      {  
         "original_name":"Westworld",
         "genre_ids":[  
            878,
            37
         ],
         "name":"Westworld",
         "popularity":58.032,
         "origin_country":[  
            "US"
         ],
         "vote_count":1468,
         "first_air_date":"2016-10-02",
         "backdrop_path":"\/yp94aOXzuqcQHva90B3jxLfnOO9.jpg",
         "original_language":"en",
         "id":63247,
         "vote_average":8.1,
         "overview":"A dark odyssey about the dawn of artificial consciousness and the evolution of sin. Set at the intersection of the near future and the reimagined past, it explores a world in which every human appetite, no matter how noble or depraved, can be indulged.",
         "poster_path":"\/6aj09UTMQNyfSfk0ZX8rYOEsXL2.jpg"
      },
      {  
         "original_name":"Law & Order: Special Victims Unit",
         "genre_ids":[  
            80,
            18
         ],
         "name":"Law & Order: Special Victims Unit",
         "popularity":57.271,
         "origin_country":[  
            "US"
         ],
         "vote_count":473,
         "first_air_date":"1999-09-20",
         "backdrop_path":"\/kOvt2BOOwSAQCT8yo3pM3X2GXjh.jpg",
         "original_language":"en",
         "id":2734,
         "vote_average":6.2,
         "overview":"In the criminal justice system, sexually-based offenses are considered especially heinous. In New York City, the dedicated detectives who investigate these vicious felonies are members of an elite squad known as the Special Victims Unit. These are their stories.",
         "poster_path":"\/yzMQBlirydvKp4Zgr5FbXlsrRmw.jpg"
      },
      {  
         "original_name":"The Young and the Restless",
         "genre_ids":[  
            10766
         ],
         "name":"The Young and the Restless",
         "popularity":54.365,
         "origin_country":[  
            "US"
         ],
         "vote_count":27,
         "first_air_date":"1973-08-10",
         "backdrop_path":"\/9abMIArcm95q0CtTOTZnLdUIoSm.jpg",
         "original_language":"en",
         "id":1054,
         "vote_average":4.7,
         "overview":"The rivalries, romances, hopes and fears of the residents of the fictional Midwestern metropolis, Genoa City. The lives and loves of a wide variety of characters mingle through the generations, dominated by the Newman, Abbott, Baldwin and Winters families.",
         "poster_path":"\/5h58tbqpUhpdiQR1i4FawKWOidh.jpg"
      },
      {  
         "original_name":"Doctor Who",
         "genre_ids":[  
            18,
            10759,
            10765
         ],
         "name":"Doctor Who",
         "popularity":53.029,
         "origin_country":[  
            "GB"
         ],
         "vote_count":1160,
         "first_air_date":"2005-03-26",
         "backdrop_path":"\/tQkigP2fItdzJWvtIhBvHxgs5yE.jpg",
         "original_language":"en",
         "id":57243,
         "vote_average":7,
         "overview":"The Doctor looks and seems human. He's handsome, witty, and could be mistaken for just another man in the street. But he is a Time Lord: a 900 year old alien with 2 hearts, part of a gifted civilization who mastered time travel. The Doctor saves planets for a living – more of a hobby actually, and he's very, very good at it. He's saved us from alien menaces and evil from before time began – but just who is he?",
         "poster_path":"\/74pYAFmEhj2DuoUeUF91CbLpXSd.jpg"
      },
      {  
         "original_name":"Grey's Anatomy",
         "genre_ids":[  
            18
         ],
         "name":"Grey's Anatomy",
         "popularity":51.427,
         "origin_country":[  
            "US"
         ],
         "vote_count":704,
         "first_air_date":"2005-03-27",
         "backdrop_path":"\/y6JABtgWMVYPx84Rvy7tROU5aNH.jpg",
         "original_language":"en",
         "id":1416,
         "vote_average":6.1,
         "overview":"Follows the personal and professional lives of a group of doctors at Seattle’s Grey Sloan Memorial Hospital.",
         "poster_path":"\/mgOZSS2FFIGtfVeac1buBw3Cx5w.jpg"
      },
      {  
         "original_name":"Quantico",
         "genre_ids":[  
            80,
            18,
            9648
         ],
         "name":"Quantico",
         "popularity":51.107,
         "origin_country":[  
            "US"
         ],
         "vote_count":244,
         "first_air_date":"2015-09-27",
         "backdrop_path":"\/se0EYO34UNsOw30dEzxu5Bkt0wb.jpg",
         "original_language":"en",
         "id":62816,
         "vote_average":5.9,
         "overview":"A diverse group of recruits has arrived at the FBI Quantico Base for training. They are the best, the brightest and the most vetted, so it seems impossible that one of them is suspected of masterminding the biggest attack on New York City since 9\/11.",
         "poster_path":"\/3ofY2mALEiE0QDyRlVOV3sDNMYC.jpg"
      }
   ]
}